Proyecto_Final
…
rep_boot <- function(rep, calc_verosim, sigma_cuadrada, n){
  muestra_bootstrap <- simular_modelo(150, sigma_cuadrada^0.5)
  log_p_boot <- calc_verosim(muestra_bootstrap)
  # optimizamos
  res_boot <- optim(10, log_p_boot, control = list(fnscale = -1, maxit = 1000), method = "BFGS")
  try(if(res_boot$convergence != 0) stop("No se alcanzó convergencia."))
  tibble(parametro = c("sigma_cuad"), estimador_boot = res_boot$par) 
}

set.seed(127876)

reps_boot <- map_dfr(1:5000, ~ rep_boot(.x, calc_verosim, sigma_cuadrada, n = 150), rep = ".id") 
reps_boot

## # A tibble: 5,000 x 2
##    parametro  estimador_boot
##    <chr>               <dbl>
##  1 sigma_cuad           144.
##  2 sigma_cuad           141.
##  3 sigma_cuad           110.
##  4 sigma_cuad           128.
##  5 sigma_cuad           119.
##  6 sigma_cuad           133.
##  7 sigma_cuad           119.
##  8 sigma_cuad           150.
##  9 sigma_cuad           143.
## 10 sigma_cuad           156.
## # ... with 4,990 more rows
…
rep_boot_tau <- function(rep, calc_verosim_tau, tau, n){
  muestra_bootstrap_tau <- simular_modelo_tau(150, exp(res_tau$par))
  log_p_boot_tau <- calc_verosim_tau(muestra_bootstrap_tau)
  # optimizamos
  res_boot_tau <- optim(10, log_p_boot_tau, control = list(fnscale = -1, maxit = 1000), method = "BFGS")
  try(if(res_boot_tau$convergence != 0) stop("No se alcanzó convergencia."))
  tibble(parametro = c("tau"), estimador_boot_tau = res_boot_tau$par) 
}

set.seed(127876)

reps_boot_tau <- map_dfr(1:5000, ~ rep_boot_tau(.x, calc_verosim_tau, tau, n = 150), rep = ".id") 
reps_boot_tau

## # A tibble: 5,000 x 2
##    parametro estimador_boot_tau
##    <chr>                  <dbl>
##  1 tau                     2.49
##  2 tau                     2.48
##  3 tau                     2.35
##  4 tau                     2.43
##  5 tau                     2.39
##  6 tau                     2.45
##  7 tau                     2.39
##  8 tau                     2.51
##  9 tau                     2.48
## 10 tau                     2.53
## # ... with 4,990 more rows
…
por_estado <- poll_data %>% group_by(state) %>% summarise(n_estado = n())
por_estado_liberal <- poll_data %>% group_by(state,ideo) %>% summarise(n_very_liberal = n()) %>% filter(ideo=="very liberal")

## Warning: Factor `ideo` contains implicit NA, consider using
## `forcats::fct_explicit_na`

por_very_liberal <- left_join(por_estado,por_estado_liberal)

## Joining, by = "state"

por_very_liberal$por <- por_very_liberal$n_very_liberal/por_very_liberal$n_estado
por_very_liberal <- por_very_liberal %>% select(state,n_estado,n_very_liberal,por) %>% filter(state != "alaska" & state != "hawaii" & state!= "washington dc" )
por_very_liberal

## # A tibble: 48 x 4
##    state       n_estado n_very_liberal    por
##    <fct>          <int>          <int>  <dbl>
##  1 alabama          624             30 0.0481
##  2 arizona          542             28 0.0517
##  3 arkansas         307              7 0.0228
##  4 california      2854            179 0.0627
##  5 colorado         468             27 0.0577
##  6 connecticut      395             14 0.0354
##  7 delaware         119              7 0.0588
##  8 florida         1747             65 0.0372
##  9 georgia         1023             42 0.0411
## 10 idaho            140             14 0.1   
## # ... with 38 more rows
…
